{
  "project_info": {
    "project_number": "317488189679",
    "project_id": "wakilishwa-88cbf",
    "storage_bucket": "wakilishwa-88cbf.appspot.com"
  },
  "client": [
    {
      "client_info": {
        "mobilesdk_app_id": "1:317488189679:android:b1187112270b9cf5a2cb1a",
        "android_client_info": {
          "package_name": "com.lutukai.wakilishwa"
        }
      },
      "oauth_client": [
        {
          "client_id": "317488189679-cbb06dijc031bemeuttovi4hd3prt0lc.apps.googleusercontent.com",
          "client_type": 3
        }
      ],
      "api_key": [
        {
          "current_key": "AIzaSyCUXE6AYU3J-i3B3vObff7law7Os7w1nIU"
        }
      ],
      "services": {
        "appinvite_service": {
          "other_platform_oauth_client": [
            {
              "client_id": "317488189679-cbb06dijc031bemeuttovi4hd3prt0lc.apps.googleusercontent.com",
              "client_type": 3
            }
          ]
        }
      }
    }
  ],
  "configuration_version": "1"
}